<?xml version="1.0" encoding="utf-8"?>
<!-- Generator: Adobe Illustrator 16.0.0, SVG Export Plug-In . SVG Version: 6.00 Build 0)  -->
<!DOCTYPE svg PUBLIC "-//W3C//DTD SVG 1.1//EN" "http://www.w3.org/Graphics/SVG/1.1/DTD/svg11.dtd">
<svg version="1.1" id="Layer_1" xmlns="http://www.w3.org/2000/svg" xmlns:xlink="http://www.w3.org/1999/xlink" x="0px" y="0px"
	 width="50px" height="50px" viewBox="0 0 50 50" enable-background="new 0 0 50 50" xml:space="preserve">
<g>
	
		<rect x="-6.87" y="23.841" transform="matrix(0.7071 0.7071 -0.7071 0.7071 25.109 -10.2798)" fill="#A4A5A8" width="63.666" height="2.654"/>
	
		<rect x="-6.87" y="23.84" transform="matrix(0.7071 -0.7071 0.7071 0.7071 -10.4839 25.0229)" fill="#A4A5A8" width="63.665" height="2.653"/>
</g>
</svg>
