[
    {
        "key": "group_5898b9702aa40",
        "title": "Flexible Content",
        "fields": [
            {
                "placement": "top",
                "endpoint": 0,
                "key": "field_5898b9cd3829c",
                "label": "Layout",
                "name": "",
                "type": "tab",
                "instructions": "",
                "required": 0,
                "conditional_logic": 0,
                "wrapper": {
                    "width": "",
                    "class": "",
                    "id": ""
                }
            },
            {
                "layout": "horizontal",
                "choices": {
                    "Fullwidth": "Fullwidth",
                    "Sidebar": "Sidebar",
                    "Sections": "Sections"
                },
                "default_value": "Fullwidth",
                "other_choice": 0,
                "save_other_choice": 0,
                "allow_null": 0,
                "return_format": "value",
                "key": "field_5898b9f03829d",
                "label": "Choose Layout",
                "name": "choose_page_layout",
                "type": "radio",
                "instructions": "Page layout. Do not rename field name & values.",
                "required": 0,
                "conditional_logic": 0,
                "wrapper": {
                    "width": "",
                    "class": "",
                    "id": "acf-whisk-layout"
                }
            },
            {
                "placement": "top",
                "endpoint": 0,
                "key": "field_5898bd7edf5dc",
                "label": "Content",
                "name": "",
                "type": "tab",
                "instructions": "",
                "required": 0,
                "conditional_logic": 0,
                "wrapper": {
                    "width": "",
                    "class": "",
                    "id": ""
                }
            },
            {
                "layouts": [
                    {
                        "key": "5898e247c62d5",
                        "name": "text_editor",
                        "label": "Text Editor",
                        "display": "block",
                        "sub_fields": [
                            {
                                "tabs": "all",
                                "toolbar": "full",
                                "media_upload": 1,
                                "default_value": "",
                                "delay": 0,
                                "key": "field_5898e25e710c2",
                                "label": "Text Editor",
                                "name": "text_editor",
                                "type": "wysiwyg",
                                "instructions": "",
                                "required": 0,
                                "conditional_logic": 0,
                                "wrapper": {
                                    "width": "",
                                    "class": "",
                                    "id": ""
                                }
                            }
                        ],
                        "min": "",
                        "max": ""
                    }
                ],
                "min": "",
                "max": "",
                "button_label": "Add Content",
                "key": "field_5898bd8edf5dd",
                "label": "Add Content",
                "name": "fx_add_content",
                "type": "flexible_content",
                "instructions": "",
                "required": 0,
                "conditional_logic": [
                    [
                        {
                            "field": "field_5898b9f03829d",
                            "operator": "==",
                            "value": "Fullwidth"
                        }
                    ],
                    [
                        {
                            "field": "field_5898b9f03829d",
                            "operator": "==",
                            "value": "Sidebar"
                        }
                    ]
                ],
                "wrapper": {
                    "width": "",
                    "class": "",
                    "id": "acf-whisk-content"
                }
            },
            {
                "layouts": [
                    {
                        "key": "589b6f3b5d563",
                        "name": "custom_section",
                        "label": "Custom Section",
                        "display": "block",
                        "sub_fields": [
                            {
                                "layout": "horizontal",
                                "choices": {
                                    "1": "1",
                                    "2": "2",
                                    "3": "3"
                                },
                                "default_value": 1,
                                "other_choice": 0,
                                "save_other_choice": 0,
                                "allow_null": 0,
                                "return_format": "value",
                                "key": "field_589b7d8b12fe6",
                                "label": "Columns",
                                "name": "columns",
                                "type": "radio",
                                "instructions": "",
                                "required": 0,
                                "conditional_logic": 0,
                                "wrapper": {
                                    "width": "12",
                                    "class": "",
                                    "id": ""
                                }
                            },
                            {
                                "layout": "vertical",
                                "choices": {
                                    "Yes": "Yes"
                                },
                                "default_value": [],
                                "allow_custom": 0,
                                "save_custom": 0,
                                "toggle": 0,
                                "return_format": "value",
                                "key": "field_589baaad667ed",
                                "label": "Fluid",
                                "name": "fluid",
                                "type": "checkbox",
                                "instructions": "",
                                "required": 0,
                                "conditional_logic": 0,
                                "wrapper": {
                                    "width": "8",
                                    "class": "",
                                    "id": ""
                                }
                            },
                            {
                                "multiple": 1,
                                "allow_null": 0,
                                "choices": {
                                    "Select": "Select",
                                    "red": "color-primary",
                                    "image": "bg-image"
                                },
                                "default_value": [],
                                "ui": 1,
                                "ajax": 1,
                                "placeholder": "",
                                "return_format": "value",
                                "key": "field_589b82b6b7eb8",
                                "label": "Custom Options",
                                "name": "custom_class",
                                "type": "select",
                                "instructions": "",
                                "required": 0,
                                "conditional_logic": 0,
                                "wrapper": {
                                    "width": "20",
                                    "class": "",
                                    "id": ""
                                }
                            },
                            {
                                "multiple": 1,
                                "allow_null": 0,
                                "choices": {
                                    "col-lg-6": "Desktop 1\/2",
                                    "col-lg-4": "Desktop 1\/3",
                                    "col-lg-3": "Desktop 1\/4",
                                    "col-lg-8": "Desktop 2\/3",
                                    "col-lg-9": "Desktop 3\/4",
                                    "col-sm-6": "Tablet 1\/2",
                                    "col-sm-4": "Tablet 1\/3",
                                    "col-sm-3": "Tablet 1\/4",
                                    "col-sm-8": "Tablet 2\/3",
                                    "col-sm-9": "Tablet 3\/4",
                                    "col-sm-12": "Tablet 1\/1",
                                    "col-xs-6": "Mobile 1\/2",
                                    "col-xs-4": "Mobile 1\/3",
                                    "col-xs-3": "Mobile 1\/4",
                                    "col-xs-8": "Mobile 2\/3",
                                    "col-xs-9": "Mobile 3\/4",
                                    "col-xs-12": "Mobile 1\/1"
                                },
                                "default_value": [],
                                "ui": 1,
                                "ajax": 1,
                                "placeholder": "",
                                "return_format": "value",
                                "key": "field_589b80dd8b91d",
                                "label": "Column One Options",
                                "name": "column_options_one",
                                "type": "select",
                                "instructions": "",
                                "required": 0,
                                "conditional_logic": [
                                    [
                                        {
                                            "field": "field_589b7d8b12fe6",
                                            "operator": "==",
                                            "value": "2"
                                        }
                                    ],
                                    [
                                        {
                                            "field": "field_589b7d8b12fe6",
                                            "operator": "==",
                                            "value": "3"
                                        }
                                    ]
                                ],
                                "wrapper": {
                                    "width": "20",
                                    "class": "",
                                    "id": ""
                                }
                            },
                            {
                                "multiple": 1,
                                "allow_null": 0,
                                "choices": {
                                    "col-lg-6": "Desktop 1\/2",
                                    "col-lg-4": "Desktop 1\/3",
                                    "col-lg-3": "Desktop 1\/4",
                                    "col-lg-8": "Desktop 2\/3",
                                    "col-lg-9": "Desktop 3\/4",
                                    "col-sm-6": "Tablet 1\/2",
                                    "col-sm-4": "Tablet 1\/3",
                                    "col-sm-3": "Tablet 1\/4",
                                    "col-sm-8": "Tablet 2\/3",
                                    "col-sm-9": "Tablet 3\/4",
                                    "col-sm-12": "Tablet 1\/1",
                                    "col-xs-6": "Mobile 1\/2",
                                    "col-xs-4": "Mobile 1\/3",
                                    "col-xs-3": "Mobile 1\/4",
                                    "col-xs-8": "Mobile 2\/3",
                                    "col-xs-9": "Mobile 3\/4",
                                    "col-xs-12": "Mobile 1\/1"
                                },
                                "default_value": [],
                                "ui": 1,
                                "ajax": 1,
                                "placeholder": "",
                                "return_format": "value",
                                "key": "field_589b81178b91e",
                                "label": "Column Two Options",
                                "name": "column_options_two",
                                "type": "select",
                                "instructions": "",
                                "required": 0,
                                "conditional_logic": [
                                    [
                                        {
                                            "field": "field_589b7d8b12fe6",
                                            "operator": "==",
                                            "value": "2"
                                        }
                                    ],
                                    [
                                        {
                                            "field": "field_589b7d8b12fe6",
                                            "operator": "==",
                                            "value": "3"
                                        }
                                    ]
                                ],
                                "wrapper": {
                                    "width": "20",
                                    "class": "",
                                    "id": ""
                                }
                            },
                            {
                                "multiple": 1,
                                "allow_null": 0,
                                "choices": {
                                    "col-lg-6": "Desktop 1\/2",
                                    "col-lg-4": "Desktop 1\/3",
                                    "col-lg-3": "Desktop 1\/4",
                                    "col-lg-8": "Desktop 2\/3",
                                    "col-lg-9": "Desktop 3\/4",
                                    "col-sm-6": "Tablet 1\/2",
                                    "col-sm-4": "Tablet 1\/3",
                                    "col-sm-3": "Tablet 1\/4",
                                    "col-sm-8": "Tablet 2\/3",
                                    "col-sm-9": "Tablet 3\/4",
                                    "col-sm-12": "Tablet 1\/1",
                                    "col-xs-6": "Mobile 1\/2",
                                    "col-xs-4": "Mobile 1\/3",
                                    "col-xs-3": "Mobile 1\/4",
                                    "col-xs-8": "Mobile 2\/3",
                                    "col-xs-9": "Mobile 3\/4",
                                    "col-xs-12": "Mobile 1\/1"
                                },
                                "default_value": [],
                                "ui": 1,
                                "ajax": 1,
                                "placeholder": "",
                                "return_format": "value",
                                "key": "field_589b834e47fb6",
                                "label": "Column Three Options",
                                "name": "column_options_three",
                                "type": "select",
                                "instructions": "",
                                "required": 0,
                                "conditional_logic": [
                                    [
                                        {
                                            "field": "field_589b7d8b12fe6",
                                            "operator": "==",
                                            "value": "3"
                                        }
                                    ]
                                ],
                                "wrapper": {
                                    "width": "20",
                                    "class": "",
                                    "id": ""
                                }
                            },
                            {
                                "layouts": [
                                    {
                                        "key": "589b6d8380b86",
                                        "name": "text_editor",
                                        "label": "Text Editor",
                                        "display": "block",
                                        "sub_fields": [
                                            {
                                                "clone": [
                                                    "field_5898e25e710c2"
                                                ],
                                                "prefix_label": 0,
                                                "prefix_name": 0,
                                                "display": "seamless",
                                                "layout": "block",
                                                "key": "field_589b76e474995",
                                                "label": "Text Editor",
                                                "name": "text_editor",
                                                "type": "clone",
                                                "instructions": "",
                                                "required": 0,
                                                "conditional_logic": 0,
                                                "wrapper": {
                                                    "width": "",
                                                    "class": "",
                                                    "id": ""
                                                }
                                            }
                                        ],
                                        "min": "",
                                        "max": ""
                                    }
                                ],
                                "min": "",
                                "max": "",
                                "button_label": "Add Row",
                                "key": "field_589b6f595d564",
                                "label": "Section",
                                "name": "section_fullwidth",
                                "type": "flexible_content",
                                "instructions": "",
                                "required": 0,
                                "conditional_logic": [
                                    [
                                        {
                                            "field": "field_589b7d8b12fe6",
                                            "operator": "==",
                                            "value": "1"
                                        }
                                    ]
                                ],
                                "wrapper": {
                                    "width": "",
                                    "class": "",
                                    "id": ""
                                }
                            },
                            {
                                "layouts": [
                                    {
                                        "key": "589b7c28b5426",
                                        "name": "text_editor",
                                        "label": "Text Editor",
                                        "display": "block",
                                        "sub_fields": [
                                            {
                                                "clone": [
                                                    "field_5898e25e710c2"
                                                ],
                                                "prefix_label": 0,
                                                "prefix_name": 0,
                                                "display": "seamless",
                                                "layout": "block",
                                                "key": "field_589b9c1b56629",
                                                "label": "Text Editor",
                                                "name": "text_editor",
                                                "type": "clone",
                                                "instructions": "",
                                                "required": 0,
                                                "conditional_logic": 0,
                                                "wrapper": {
                                                    "width": "",
                                                    "class": "",
                                                    "id": ""
                                                }
                                            }
                                        ],
                                        "min": "",
                                        "max": ""
                                    }
                                ],
                                "min": "",
                                "max": "",
                                "button_label": "Add Row",
                                "key": "field_589b7debe7f4b",
                                "label": "Section Two Columns",
                                "name": "section_2_columns_one",
                                "type": "flexible_content",
                                "instructions": "",
                                "required": 0,
                                "conditional_logic": [
                                    [
                                        {
                                            "field": "field_589b7d8b12fe6",
                                            "operator": "==",
                                            "value": "2"
                                        }
                                    ]
                                ],
                                "wrapper": {
                                    "width": "50",
                                    "class": "",
                                    "id": ""
                                }
                            },
                            {
                                "layouts": [
                                    {
                                        "key": "589b7c4d19faa",
                                        "name": "text_editor",
                                        "label": "Text Editor",
                                        "display": "block",
                                        "sub_fields": [
                                            {
                                                "clone": [
                                                    "field_5898e25e710c2"
                                                ],
                                                "prefix_label": 0,
                                                "prefix_name": 0,
                                                "display": "seamless",
                                                "layout": "block",
                                                "key": "field_589b9c325662a",
                                                "label": "Text Editor",
                                                "name": "text_editor",
                                                "type": "clone",
                                                "instructions": "",
                                                "required": 0,
                                                "conditional_logic": 0,
                                                "wrapper": {
                                                    "width": "",
                                                    "class": "",
                                                    "id": ""
                                                }
                                            }
                                        ],
                                        "min": "",
                                        "max": ""
                                    }
                                ],
                                "min": "",
                                "max": "",
                                "button_label": "Add Row",
                                "key": "field_589b7e19e7f4c",
                                "label": "Section Two Columns",
                                "name": "section_2_columns_two",
                                "type": "flexible_content",
                                "instructions": "",
                                "required": 0,
                                "conditional_logic": [
                                    [
                                        {
                                            "field": "field_589b7d8b12fe6",
                                            "operator": "==",
                                            "value": "2"
                                        }
                                    ]
                                ],
                                "wrapper": {
                                    "width": "50",
                                    "class": "",
                                    "id": ""
                                }
                            },
                            {
                                "layouts": [
                                    {
                                        "key": "589b7cbe3e46b",
                                        "name": "text_editor",
                                        "label": "Text Editor",
                                        "display": "block",
                                        "sub_fields": [
                                            {
                                                "clone": [
                                                    "field_5898e25e710c2"
                                                ],
                                                "prefix_label": 0,
                                                "prefix_name": 0,
                                                "display": "seamless",
                                                "layout": "block",
                                                "key": "field_589b9c5d5662b",
                                                "label": "Text Editor",
                                                "name": "text_editor",
                                                "type": "clone",
                                                "instructions": "",
                                                "required": 0,
                                                "conditional_logic": 0,
                                                "wrapper": {
                                                    "width": "",
                                                    "class": "",
                                                    "id": ""
                                                }
                                            }
                                        ],
                                        "min": "",
                                        "max": ""
                                    }
                                ],
                                "min": "",
                                "max": "",
                                "button_label": "Add Row",
                                "key": "field_589b7e74e7f4d",
                                "label": "Section Three Columns",
                                "name": "section_3_columns_one",
                                "type": "flexible_content",
                                "instructions": "",
                                "required": 0,
                                "conditional_logic": [
                                    [
                                        {
                                            "field": "field_589b7d8b12fe6",
                                            "operator": "==",
                                            "value": "3"
                                        }
                                    ]
                                ],
                                "wrapper": {
                                    "width": "33",
                                    "class": "",
                                    "id": ""
                                }
                            },
                            {
                                "layouts": [
                                    {
                                        "key": "589b7ccae6fbb",
                                        "name": "text_editor",
                                        "label": "Text Editor",
                                        "display": "block",
                                        "sub_fields": [
                                            {
                                                "clone": [
                                                    "field_5898e25e710c2"
                                                ],
                                                "prefix_label": 0,
                                                "prefix_name": 0,
                                                "display": "seamless",
                                                "layout": "block",
                                                "key": "field_589b9c735662c",
                                                "label": "Text Editor",
                                                "name": "text_editor",
                                                "type": "clone",
                                                "instructions": "",
                                                "required": 0,
                                                "conditional_logic": 0,
                                                "wrapper": {
                                                    "width": "",
                                                    "class": "",
                                                    "id": ""
                                                }
                                            }
                                        ],
                                        "min": "",
                                        "max": ""
                                    }
                                ],
                                "min": "",
                                "max": "",
                                "button_label": "Add Row",
                                "key": "field_589b7eace7f4e",
                                "label": "Section Three Columns",
                                "name": "section_3_columns_two",
                                "type": "flexible_content",
                                "instructions": "",
                                "required": 0,
                                "conditional_logic": [
                                    [
                                        {
                                            "field": "field_589b7d8b12fe6",
                                            "operator": "==",
                                            "value": "3"
                                        }
                                    ]
                                ],
                                "wrapper": {
                                    "width": "33",
                                    "class": "",
                                    "id": ""
                                }
                            },
                            {
                                "layouts": [
                                    {
                                        "key": "589b7cd4e37c5",
                                        "name": "text_editor",
                                        "label": "Text Editor",
                                        "display": "block",
                                        "sub_fields": [
                                            {
                                                "clone": [
                                                    "field_5898e25e710c2"
                                                ],
                                                "prefix_label": 0,
                                                "prefix_name": 0,
                                                "display": "seamless",
                                                "layout": "block",
                                                "key": "field_589b9c915662d",
                                                "label": "Text Editor",
                                                "name": "text_editor",
                                                "type": "clone",
                                                "instructions": "",
                                                "required": 0,
                                                "conditional_logic": 0,
                                                "wrapper": {
                                                    "width": "",
                                                    "class": "",
                                                    "id": ""
                                                }
                                            }
                                        ],
                                        "min": "",
                                        "max": ""
                                    }
                                ],
                                "min": "",
                                "max": "",
                                "button_label": "Add Row",
                                "key": "field_589b7eb9e7f4f",
                                "label": "Section Three Columns",
                                "name": "section_3_columns_three",
                                "type": "flexible_content",
                                "instructions": "",
                                "required": 0,
                                "conditional_logic": [
                                    [
                                        {
                                            "field": "field_589b7d8b12fe6",
                                            "operator": "==",
                                            "value": "3"
                                        }
                                    ]
                                ],
                                "wrapper": {
                                    "width": "33",
                                    "class": "",
                                    "id": ""
                                }
                            }
                        ],
                        "min": "",
                        "max": ""
                    }
                ],
                "min": "",
                "max": "",
                "button_label": "Add Section",
                "key": "field_5898f81b7d7b0",
                "label": "Add Sections",
                "name": "fx_add_sections",
                "type": "flexible_content",
                "instructions": "",
                "required": 0,
                "conditional_logic": [
                    [
                        {
                            "field": "field_5898b9f03829d",
                            "operator": "==",
                            "value": "Sections"
                        }
                    ]
                ],
                "wrapper": {
                    "width": "",
                    "class": "",
                    "id": "acf-whisk-sections"
                }
            },
            {
                "placement": "top",
                "endpoint": 0,
                "key": "field_5898be9adf5df",
                "label": "Aside",
                "name": "",
                "type": "tab",
                "instructions": "",
                "required": 0,
                "conditional_logic": [
                    [
                        {
                            "field": "field_5898b9f03829d",
                            "operator": "==",
                            "value": "Sidebar"
                        }
                    ]
                ],
                "wrapper": {
                    "width": "",
                    "class": "",
                    "id": ""
                }
            },
            {
                "layouts": [
                    {
                        "key": "5898ea242e378",
                        "name": "text_editor",
                        "label": "Text Editor",
                        "display": "block",
                        "sub_fields": [
                            {
                                "tabs": "all",
                                "toolbar": "full",
                                "media_upload": 1,
                                "default_value": "",
                                "delay": 0,
                                "key": "field_5898ea38f7953",
                                "label": "Text Editor",
                                "name": "text_editor",
                                "type": "wysiwyg",
                                "instructions": "",
                                "required": 0,
                                "conditional_logic": 0,
                                "wrapper": {
                                    "width": "",
                                    "class": "",
                                    "id": ""
                                }
                            }
                        ],
                        "min": "",
                        "max": ""
                    }
                ],
                "min": "",
                "max": "",
                "button_label": "Aside Elements",
                "key": "field_5898beacdf5e0",
                "label": "Aside Content",
                "name": "fx_aside",
                "type": "flexible_content",
                "instructions": "",
                "required": 0,
                "conditional_logic": 0,
                "wrapper": {
                    "width": "",
                    "class": "",
                    "id": "acf-whisk-aside"
                }
            },
            {
                "placement": "top",
                "endpoint": 0,
                "key": "field_5898e2ad710c3",
                "label": "Page Settings",
                "name": "",
                "type": "tab",
                "instructions": "",
                "required": 0,
                "conditional_logic": 0,
                "wrapper": {
                    "width": "",
                    "class": "",
                    "id": ""
                }
            },
            {
                "layout": "horizontal",
                "choices": {
                    "No": "No",
                    "Yes": "Yes"
                },
                "default_value": "No",
                "other_choice": 0,
                "save_other_choice": 0,
                "allow_null": 0,
                "return_format": "value",
                "key": "field_5898e2c4710c4",
                "label": "Hide Title",
                "name": "hide_page_title",
                "type": "radio",
                "instructions": "",
                "required": 0,
                "conditional_logic": 0,
                "wrapper": {
                    "width": "",
                    "class": "",
                    "id": ""
                }
            }
        ],
        "location": [
            [
                {
                    "param": "post_type",
                    "operator": "==",
                    "value": "page"
                }
            ]
        ],
        "menu_order": 0,
        "position": "normal",
        "style": "default",
        "label_placement": "top",
        "instruction_placement": "label",
        "hide_on_screen": [
            "the_content",
            "excerpt"
        ],
        "active": 1,
        "description": ""
    },
    {
        "key": "group_589a608015dee",
        "title": "Theme Settings",
        "fields": [
            {
                "placement": "top",
                "endpoint": 0,
                "key": "field_589a616d6c595",
                "label": "General",
                "name": "",
                "type": "tab",
                "instructions": "",
                "required": 0,
                "conditional_logic": 0,
                "wrapper": {
                    "width": "",
                    "class": "",
                    "id": ""
                }
            },
            {
                "return_format": "array",
                "preview_size": "medium_large",
                "library": "all",
                "min_width": "",
                "min_height": "",
                "min_size": "",
                "max_width": "",
                "max_height": "",
                "max_size": "",
                "mime_types": "",
                "key": "field_589a60debb085",
                "label": "Website Logo",
                "name": "website_logo",
                "type": "image",
                "instructions": "",
                "required": 0,
                "conditional_logic": 0,
                "wrapper": {
                    "width": "",
                    "class": "",
                    "id": ""
                }
            },
            {
                "tabs": "all",
                "toolbar": "basic",
                "media_upload": 0,
                "default_value": "",
                "delay": 0,
                "key": "field_589a619690750",
                "label": "Copyrights",
                "name": "copyrights",
                "type": "wysiwyg",
                "instructions": "",
                "required": 0,
                "conditional_logic": 0,
                "wrapper": {
                    "width": "",
                    "class": "",
                    "id": ""
                }
            },
            {
                "placement": "top",
                "endpoint": 0,
                "key": "field_589a625b6b82d",
                "label": "Social Media",
                "name": "",
                "type": "tab",
                "instructions": "",
                "required": 0,
                "conditional_logic": 0,
                "wrapper": {
                    "width": "",
                    "class": "",
                    "id": ""
                }
            },
            {
                "sub_fields": [
                    {
                        "default_value": "",
                        "maxlength": "",
                        "placeholder": "",
                        "prepend": "",
                        "append": "",
                        "key": "field_589a627f6b82f",
                        "label": "Title",
                        "name": "title",
                        "type": "text",
                        "instructions": "",
                        "required": 0,
                        "conditional_logic": 0,
                        "wrapper": {
                            "width": "15",
                            "class": "",
                            "id": ""
                        }
                    },
                    {
                        "default_value": "",
                        "maxlength": "",
                        "placeholder": "",
                        "prepend": "",
                        "append": "",
                        "key": "field_589a62856b830",
                        "label": "Url",
                        "name": "url",
                        "type": "text",
                        "instructions": "",
                        "required": 0,
                        "conditional_logic": 0,
                        "wrapper": {
                            "width": "",
                            "class": "",
                            "id": ""
                        }
                    },
                    {
                        "multiple": 0,
                        "allow_null": 0,
                        "choices": {
                            "Select": "Select",
                            "facebook": "facebook",
                            "instagram": "instagram",
                            "twitter": "twitter",
                            "linkedin": "linkedin",
                            "youtube": "youtube"
                        },
                        "default_value": [],
                        "ui": 0,
                        "ajax": 0,
                        "placeholder": "",
                        "return_format": "value",
                        "key": "field_589a628e6b831",
                        "label": "Chooce Icon",
                        "name": "icon",
                        "type": "select",
                        "instructions": "",
                        "required": 0,
                        "conditional_logic": 0,
                        "wrapper": {
                            "width": "",
                            "class": "",
                            "id": ""
                        }
                    },
                    {
                        "layout": "horizontal",
                        "choices": {
                            "No": "No",
                            "Yes": "Yes"
                        },
                        "default_value": "No",
                        "other_choice": 0,
                        "save_other_choice": 0,
                        "allow_null": 0,
                        "return_format": "value",
                        "key": "field_589a62da6b832",
                        "label": "Open on a new window",
                        "name": "open_on_a_new_window",
                        "type": "radio",
                        "instructions": "",
                        "required": 0,
                        "conditional_logic": 0,
                        "wrapper": {
                            "width": "15",
                            "class": "",
                            "id": ""
                        }
                    }
                ],
                "min": 0,
                "max": 0,
                "layout": "table",
                "button_label": "",
                "collapsed": "",
                "key": "field_589a62686b82e",
                "label": "Add Social Media",
                "name": "add_social_media",
                "type": "repeater",
                "instructions": "",
                "required": 0,
                "conditional_logic": 0,
                "wrapper": {
                    "width": "",
                    "class": "",
                    "id": ""
                }
            }
        ],
        "location": [
            [
                {
                    "param": "options_page",
                    "operator": "==",
                    "value": "theme-general-settings"
                }
            ]
        ],
        "menu_order": 0,
        "position": "normal",
        "style": "default",
        "label_placement": "top",
        "instruction_placement": "label",
        "hide_on_screen": "",
        "active": 1,
        "description": ""
    }
]